{
    "antifeatures": {
        "Ads": "يحتوي هذا التطبيق على إعلانات",
        "DisabledAlgorithm": "لدى هذا التطبيق توقيع أمان ضعيف",
        "KnownVuln": "يحتوي هذا التطبيق على ثغرة أمنية معروفة",
        "NSFW": "يحتوي هذا التطبيق على محتوى لا يجب الإعلان عنه أو رؤيته في كل مكان",
        "NoSourceSince": "لم يعد الكود المصدري متاحًا، لا تحديثات مُمكنة",
        "NonFreeAdd": "هذا التطبيق يحمل إضافات غير حرة",
        "NonFreeAssets": "هذا التطبيق يحتوي على أصول غير الحرة",
        "NonFreeDep": "هذا التطبيق يعتمد على تطبيقات أخرى غير حرة",
        "NonFreeNet": "يروج هذا التطبيق أو يعتمد كليًا على خدمة شبكة غير حرة",
        "TetheredNet": "يعتمد هذا التطبيق كليًا على مثيل معين من خدمة الشبكة",
        "Tracking": "هذا التطبيق يراقب ويوثق نشاطك",
        "UpstreamNonFree": "شفرة المصدر المنشطة ليست حرة تماماً"
    },
    "app_categories": {
        "Connectivity": "الاتصال",
        "Development": "التطوير",
        "Games": "الألعاب",
        "Graphics": "الرسوميات",
        "Internet": "الإنترنت",
        "Money": "المالية",
        "Multimedia": "الوسائط المتعددة",
        "Navigation": "التصفح",
        "Phone & SMS": "الهاتف و الرسائل القصيرة",
        "Reading": "القراءة",
        "Science & Education": "العلوم و التعليم",
        "Security": "الأمان",
        "Sports & Health": "الرياضة و الصحة",
        "System": "النظام",
        "Theming": "السمات",
        "Time": "الوقت",
        "Writing": "الكتابة",
        "show_all_packages": "عرض جميع %d الحزم"
    },
    "index": {
        "download_fdroid": "تنزيل F-Droid",
        "gpg_signature": "توقيع بي جي بي",
        "introduction": "F-Droid هو فهرس للتطبيقات والبرمجيات الحرة المفتوحة المصدر لمنصة أندرويد. يسمح لك التطبيق بإكتشاف وتثبيت ومتابعة التحديثات على جهازك.",
        "pgp_verification_instructions": "تعليمات للتحقق من التنزيل",
        "screenshot": "لقطات الشاشة ل F-Droid على نظام الأندرويد",
        "title": "ما هو F-Droid؟"
    },
    "mirrors": {
        "cn": "البر الرئيسي للصين",
        "de": "ألمانيا",
        "dk": "الدنمارك",
        "indiana": "إنديانا، الولايات المتحدة الأمريكية",
        "se": "السويد",
        "sg": "سنغافورة",
        "tw": "تايوان",
        "ua": "أوكرانيا"
    },
    "navigation": {
        "about": "عن F-Droid",
        "apps": "التطبيقات",
        "contribute": "ساهم",
        "documentation": "الوثائق",
        "edit_on_gitlab": "تعديل على غيت لاب",
        "forum": "المنتدى",
        "issues": "المشاكل",
        "news": "الأخبار",
        "statuspage": "الحالة",
        "translate_on_weblate": "ترجم على Weblate"
    },
    "news": {
        "date_format": "%d/%m/%Y",
        "newer_posts": "← أحدث المشاركات",
        "older_posts": "→ أقدم المشاركات",
        "posted_on": "تم النشر في {{ post_date }}",
        "posted_on_by": "نُشر في {{ post_date }} بواسطة"
    },
    "package": {
        "added_on": "مضاف في {{ package_added_date }}",
        "anti_features": "المميزات المضادة",
        "anti_features_warning": "لدى هذا التطبيق ميزات قد لا تعجبك.",
        "author": "المالك",
        "build_log": "سجل البناء",
        "build_metadata": "بيانات البناء الوصفية",
        "changelog": "سجل التغييرات",
        "donate": "تبرع",
        "download": "تحميل {{ file_extension }}",
        "file_size_bytes": "بايت",
        "file_size_format": "%{number} ‏ %{unit}",
        "file_size_gibibytes": "ج.بايت",
        "file_size_kibibytes": "ك.بايت",
        "file_size_mebibytes": "م.بايت",
        "file_size_tebibytes": "ت.بايب",
        "flattr": "فلاتر",
        "gpg_signature": "توقيع بي جي بي",
        "issue_tracker": "مقتفي المشاكل",
        "liberapay": "Liberapay",
        "license": "الرخصة",
        "minimum_android_version": "يتطلب هذا الإصدار نظام أندرويد {{ android_version }} أو أحدث.",
        "new_in_version": "جديد في الإصدار {{ latest_version }}",
        "no_permissions": "لا أذونات",
        "opencollective": "Open Collective",
        "package_icon_alt": "ايقونة الحزمة",
        "package_screenshot_alt": "لقطة شاشة للتطبيق",
        "packages": "الحزم",
        "permissions": "الأذونات",
        "signed_by_developer": "تم إنشاؤه وتوقيعه بواسطة المطور الأصلي ، وهو مضمون ليتوافق مع <a href=\"{{ source_code_url }}\"> تار المصدر هذا </a>.",
        "signed_by_fdroid": "مصمّمٌ و مُوقّع عليه من طرف أف-درويد و مضمون ليتوافق مع <a href=\"{{ source_code_url }}\">حزمة تار المصدرية</a>.",
        "source_code": "الشفرة المصدرية",
        "suggest_downloading_via_fdroid": "على الرغم من تَوفّر حُزم APK أدناه لاعطيائك الخيار إلّا أنه يجب أن تكون على علم بأن عملية التثبيت بهذه الطريقة لن تمكِّنك من تلقي إشعارات التحديث وأنها وسيلة أقل أمنا للتنزيل. ننصحك بتثبيت تطبيق F-Droid واستخدامه.",
        "suggested": "مقترحة",
        "translation": "الترجمة",
        "version_info": "<b>الإصدار {{ package_version }}</b> ({{ package_version_code }})",
        "versions": "الاصدارات",
        "website": "الموقع"
    },
    "permissions": {
        "permdesc_acceptHandovers": "السماح للتطبيق بمواصلة مكالمة بدأت في تطبيق آخر.",
        "permdesc_accessBackgroundLocation": "يمكن لهذا التطبيق الوصول إلى الموقع الجغرافي في أي وقت، حتى أثناء عدم استخدام التطبيق.",
        "permdesc_accessCoarseLocation": "لا يمكن لهذا التطبيق معرفة موقعك الجغرافي التقريبي من خدمات الموقع الجغرافي عندما يكون التطبيق قيد التشغيل. يجب تفعيل خدمات الموقع الجغرافي على جهازك كي يتمكّن التطبيق من معرفة الموقع الجغرافي.",
        "permdesc_accessDrmCertificates": "‏للسماح لأحد التطبيقات بتوفير شهادات DRM واستخدامها. لن تكون هناك حاجة أبدا للتطبيقات العادية.",
        "permdesc_accessFineLocation": "يمكن لهذا التطبيق معرفة موقعك الجغرافي الدقيق من خدمات الموقع الجغرافي عندما يكون التطبيق قيد التشغيل. يجب تفعيل خدمات الموقع الجغرافي على جهازك كي يتمكّن التطبيق من معرفة الموقع الجغرافي. قد يؤدي هذا إلى زيادة استهلاك شحن البطارية.",
        "permdesc_accessImsCallService": "للسماح للتطبيق باستخدام خدمة الرسائل الفورية لإجراء المكالمات دون تدخل منك.",
        "permdesc_accessLocationExtraCommands": "‏للسماح للتطبيق بالدخول إلى أوامر إضافية لموفر الموقع. قد يتيح هذا للتطبيق التداخل مع تشغيل تقنية نظام تحديد المواقع العالمي (GPS) أو مصادر الموقع الأخرى.",
        "permdesc_accessNetworkConditions": "للسماح للتطبيق بالاستماع إلى ملاحظات حول أحوال الشبكة. لا حاجة إلى هذا مع التطبيقات العادية.",
        "permdesc_accessNetworkState": "للسماح للتطبيق بعرض معلومات حول اتصالات الشبكة كعرض معلومات عن الشبكات المتوفرة والشبكات المتصلة.",
        "permdesc_accessNotifications": "يتيح للتطبيق استرجاع الإشعارات وفحصها ومسحها، بما في ذلك تلك التي نشرتها تطبيقات أخرى.",
        "permdesc_accessWifiState": "‏للسماح للتطبيق بعرض معلومات حول شبكات Wi-Fi، كعرض معلومات حول ما إذا تم تفعيل Wi-Fi واسم أجهزة Wi-Fi المتصلة.",
        "permdesc_accessWimaxState": "‏للسماح للتطبيق بتحديد ما إذا تم تفعيل WiMAX وتحديد معلومات حول أي شبكات WiMAX متصلة.",
        "permdesc_access_notification_policy": "للسماح للتطبيق بقراءة تهيئة \"عدم الإزعاج\" وكتابتها.",
        "permdesc_activityRecognition": "يمكن لهذا التطبيق التعرّف على نشاطك البدني.",
        "permdesc_addVoicemail": "للسماح للتطبيق بإضافة رسائل إلى صندوق البريد الصوتي.",
        "permdesc_answerPhoneCalls": "للسماح للتطبيق بالرد على مكالمة هاتفية واردة.",
        "permdesc_audioWrite": "للسماح للتطبيق بتعديل مجموعتك الموسيقية.",
        "permdesc_backgroundCamera": "يمكن لهذا التطبيق التقاط صور وتسجيل فيديوهات باستخدام الكاميرا في أي وقت.",
        "permdesc_bindCarrierMessagingService": "يسمح لحامله بالالتزام بواجهة المستوى العالي لخدمة المراسلة التابعة لمشغل شبكة الجوَّال. ومن المفترض عدم الحاجة إليه مع التطبيقات العادية.",
        "permdesc_bindCarrierServices": "للسماح للمالك بالالتزام بخدمات مشغل شبكة الجوال. لن تكون هناك حاجة إليه مطلقًا مع التطبيقات العادية.",
        "permdesc_bindCellBroadcastService": "يسمح للتطبيق بالارتباط بوحدة البث الخلوي لإعادة توجيه رسائل البث الخلوي بينما يتم استقبالها. ويتم تسليم تنبيهات البث الخلوي في بعض المواقع لتحذيرك في حالات الطوارئ. ويمكن أن تؤثر التطبيقات الضارة على أداء الجهاز أو تشغيله عندما يتم تلقي بث خلوي في حالات الطوارئ.",
        "permdesc_bindConditionProviderService": "للسماح للمالك بالربط بواجهة المستوى العلوي لخدمة موفر الحالة. لن تكون هناك حاجة إلى هذا الإعداد مطلقًا مع التطبيقات العادية.",
        "permdesc_bindDreamService": "‏للسماح للمالك بالالتزام بواجهة المستوى العلوي لخدمة dream. لن تكون هناك حاجة إليه مطلقًا مع التطبيقات العادية.",
        "permdesc_bindNotificationListenerService": "يتيح للمالك الربط بواجهة المستوى العلوي لخدمة تلقّي الإشعارات الصوتية. ولن تكون هناك حاجة إليه مطلقًا مع التطبيقات العادية.",
        "permdesc_bind_connection_service": "للسماح للتطبيق بالتفاعل مع الخدمات الهاتفية لإجراء/تلقي المكالمات.",
        "permdesc_bind_incall_service": "للسماح للتطبيق بالتحكم في وقت وكيفية مشاهدة المستخدم للشاشة أثناء الاتصال.",
        "permdesc_bluetooth": "للسماح للتطبيق بعرض تهيئة البلوتوث على الهاتف وإجراء اتصالات وقبولها مع الأجهزة المقترنة.",
        "permdesc_bluetoothAdmin": "للسماح للتطبيق بتهيئة هاتف البلوتوث المحلي، واكتشاف أجهزة التحكم عن بعد والاقتران بها.",
        "permdesc_bluetooth_advertise": "للسماح للتطبيق بعرض إعلانات على الأجهزة القريبة التي تتضمّن بلوتوث",
        "permdesc_bluetooth_connect": "يسمح هذا الإذن للتطبيق بالارتباط بالأجهزة المقترنة التي تتضمّن بلوتوث",
        "permdesc_bluetooth_scan": "يسمح هذا الإذن للتطبيق باكتشاف الأجهزة القريبة التي تتضمّن بلوتوث والاقتران بها",
        "permdesc_bodySensors": "للسماح للتطبيق بالدخول إلى البيانات من أجهزة الاستشعار التي تراقب الحالة البدنية، مثل معدل نبضات القلب.",
        "permdesc_bodySensors_background": "للسماح للتطبيق بالوصول إلى بيانات مستشعر الجسم ، مثل معدل ضربات القلب ودرجة الحرارة ونسبة الأكسجين في الدم ، أثناء وجود التطبيق في الخلفية.",
        "permdesc_broadcastSticky": "للسماح للتطبيق بإرسال مجموعات بث مستمرة، والتي تظل بعد انتهاء البث. قد يؤدي الاستخدام بكثرة إلى حدوث بطء أو عدم استقرار في الهاتف من خلال التسبب في استخدام الهاتف لمساحة كبيرة للغاية من الذاكرة.",
        "permdesc_callCompanionApp": "يستطيع التطبيق رؤية المكالمات الجارية على الجهاز والتحكّم فيها. ويشمل ذلك معلومات مثل الأرقام وحالة المكالمات.",
        "permdesc_callPhone": "للسماح للتطبيق بطلب أرقام هاتفية بدون تدخل منك. وقد يؤدي ذلك إلى تحمل رسوم غير متوقعة أو إجراء مكالمات غير متوقعة. ومن الجدير بالذكر أن ذلك لا يتيح للتطبيق الاتصال بأرقام الطوارئ. وقد تؤدي التطبيقات الضارة إلى تحملك تكاليف مالية من خلال إجراء مكالمات بدون موافقة منك.",
        "permdesc_camera": "يمكن لهذا التطبيق التقاط صور وتسجيل فيديوهات باستخدام الكاميرا عندما يكون التطبيق قيد الاستخدام.",
        "permdesc_cameraOpenCloseListener": "يمكن أن يتلقّى هذا التطبيق استدعاءات عندما تكون هناك كاميرا مفتوحة (بواسطة هذا التطبيق) أو مغلقة.",
        "permdesc_changeNetworkState": "للسماح للتطبيق بتغيير حالة اتصال الشبكة.",
        "permdesc_changeTetherState": "للسماح للتطبيق بتغيير حالة اتصال الشبكة المربوطة.",
        "permdesc_changeWifiMulticastState": "‏للسماح للتطبيق بتلقي الحزم التي يتم إرسالها إلى جميع الأجهزة على شبكة Wi-Fi باستخدام عناوين بث متعدد، وليس باستخدام هاتفك فقط. ويؤدي ذلك إلى استخدام قدر أكبر من الطاقة يفوق وضع البث غير المتعدد.",
        "permdesc_changeWifiState": "‏للسماح للتطبيق بالاتصال بنقاط الوصول إلى Wi-Fi وقطع الاتصال بها، وإجراء تغييرات على تهيئة الجهاز لشبكات Wi-Fi.",
        "permdesc_changeWimaxState": "‏للسماح للتطبيق بتوصيل الهاتف بشبكات WiMAX وقطع اتصاله بها.",
        "permdesc_companionProfileWatch": "يسمح هذا الإذن للتطبيق المصاحب بإدارة الساعات.",
        "permdesc_connection_manager": "للسماح للتطبيق بإدارة الاتصالات اللاسلكية.",
        "permdesc_control_incall_experience": "للسماح للتطبيق بتوفير تجربة للمستخدم أثناء الاتصال.",
        "permdesc_createNetworkSockets": "للسماح للتطبيق بإنشاء مقابس شبكات واستخدام بروتوكولات شبكات مخصصة. ويوفر المتصفح وتطبيقات أخرى طرقًا لإرسال البيانات إلى الإنترنت، ولذلك لا يعد هذا الإذن مطلوبًا لإرسال البيانات إلى الإنترنت.",
        "permdesc_deliverCompanionMessages": "يسمح هذا الإذن للتطبيق المصاحب بتسليم الرسائل المصاحبة إلى الأجهزة الأخرى.",
        "permdesc_detectScreenCapture": "سيتم إشعار هذا التطبيق عند التقاط لقطة شاشة أثناء استخدام التطبيق.",
        "permdesc_disableKeyguard": "للسماح للتطبيق بإيقاف تأمين المفاتيح وأي أمان لكلمة مرور مرتبطة. على سبيل المثال، يعطل الهاتف تأمين المفاتيح عند استقبال مكالمة هاتفية واردة، ثم يعيد تفعيل تأمين المفاتيح عند انتهاء المكالمة.",
        "permdesc_enableCarMode": "للسماح للتطبيق بتمكين وضع السيارة.",
        "permdesc_exemptFromAudioRecordRestrictions": "إعفاء التطبيق من القيود على تسجيل الصوت.",
        "permdesc_expandStatusBar": "للسماح للتطبيق بتوسيع شريط الحالة أو تصغيره.",
        "permdesc_foregroundService": "للسماح للتطبيق بالاستفادة من الخدمات التي تعمل في المقدمة.",
        "permdesc_foregroundServiceCamera": "‏يسمح هذا الإذن للتطبيق بالاستفادة من الخدمات التي تعمل في المقدّمة ذات النوع \"camera\"",
        "permdesc_foregroundServiceConnectedDevice": "‏يسمح هذا الإذن للتطبيق بالاستفادة من الخدمات التي تعمل في المقدّمة ذات النوع \"connectedDevice\"",
        "permdesc_foregroundServiceDataSync": "‏يسمح هذا الإذن للتطبيق بالاستفادة من الخدمات التي تعمل في المقدّمة ذات النوع \"dataSync\"",
        "permdesc_foregroundServiceFileManagement": "‏يسمح هذا الإذن للتطبيق بالاستفادة من الخدمات التي تعمل في المقدّمة ذات النوع \"fileManagement\"",
        "permdesc_foregroundServiceHealth": "‏يسمح هذا الإذن للتطبيق بالاستفادة من الخدمات التي تعمل في المقدّمة ذات النوع \"health\"",
        "permdesc_foregroundServiceLocation": "‏يسمح هذا الإذن للتطبيق بالاستفادة من الخدمات التي تعمل في المقدّمة ذات النوع \"location\"",
        "permdesc_foregroundServiceMediaPlayback": "‏يسمح هذا الإذن للتطبيق بالاستفادة من الخدمات التي تعمل في المقدّمة ذات النوع \"mediaPlayback\"",
        "permdesc_foregroundServiceMediaProjection": "‏يسمح هذا الإذن للتطبيق بالاستفادة من الخدمات التي تعمل في المقدّمة ذات النوع \"mediaProjection\"",
        "permdesc_foregroundServiceMicrophone": "‏يسمح هذا الإذن للتطبيق بالاستفادة من الخدمات التي تعمل في المقدّمة ذات النوع \"microphone\"",
        "permdesc_foregroundServicePhoneCall": "‏يسمح هذا الإذن للتطبيق بالاستفادة من الخدمات التي تعمل في المقدّمة ذات النوع \"phoneCall\"",
        "permdesc_foregroundServiceRemoteMessaging": "‏يسمح هذا الإذن للتطبيق بالاستفادة من الخدمات التي تعمل في المقدّمة ذات النوع \"remoteMessaging\"",
        "permdesc_foregroundServiceSpecialUse": "‏يسمح هذا الإذن للتطبيق بالاستفادة من الخدمات التي تعمل في المقدّمة ذات النوع \"specialUse\"",
        "permdesc_foregroundServiceSystemExempted": "‏يسمح هذا الإذن للتطبيق بالاستفادة من الخدمات التي تعمل في المقدّمة ذات النوع \"systemExempted\"",
        "permdesc_fullScreenIntent": "السماح للتطبيق بعرض الإشعارات كأنشطة بملء الشاشة على الأجهزة المُقفَلة",
        "permdesc_getAccounts": "للسماح للتطبيق بالحصول على قائمة بالحسابات التي يعرفها الهاتف. وقد يتضمن ذلك أي حسابات تم إنشاؤها بواسطة التطبيقات التي ثبتها.",
        "permdesc_getPackageSize": "للسماح للتطبيق باسترداد شفرته وبياناته وأحجام ذاكرات التخزين المؤقت",
        "permdesc_getTasks": "للسماح للتطبيق باسترداد معلومات حول المهام التي يجري تشغيلها حاليًا والتي تم تشغيلها مؤخرًا. وقد يسمح هذا للتطبيق باكتشاف معلومات حول التطبيقات المستخدمة على الجهاز.",
        "permdesc_handoverStatus": "‏السماح لهذا التطبيق بتلقي معلومات حول عمليات نقل شعاع Android الحالية",
        "permdesc_hideOverlayWindows": "يمكن أن يطلب هذا التطبيق من النظام إخفاء النوافذ المركّبة التي تنشأ من التطبيقات حتى لا تظهر فوقه.",
        "permdesc_highSamplingRateSensors": "يسمح هذا الأذن للتطبيق بزيادة بيانات جهاز الاستشعار بمعدّل بيانات في الملف الصوتي أكبر من 200 هرتز",
        "permdesc_imagesWrite": "للسماح للتطبيق بتعديل مجموعة صورك.",
        "permdesc_install_shortcut": "للسماح لتطبيق بإضافة اختصارات على الشاشة الرئيسية بدون تدخل المستخدم.",
        "permdesc_invokeCarrierSetup": "للسماح للمالك باستدعاء تطبيق التهيئة الذي يوفره مشغل شبكة الجوال. لن تكون هناك حاجة إليه مطلقًا مع التطبيقات العادية.",
        "permdesc_killBackgroundProcesses": "للسماح للتطبيق بإنهاء عمليات التطبيقات الأخرى في الخلفية. وقد يؤدي هذا إلى توقف تطبيقات أخرى عن العمل.",
        "permdesc_manageFace": "السماح للتطبيق باستدعاء طرق لإضافة نماذج من الوجوه وحذفها.",
        "permdesc_manageFingerprint": "للسماح للتطبيق باستدعاء طرق لإضافة نماذج من بصمات الأصابع وحذفها.",
        "permdesc_manageNetworkPolicy": "للسماح لتطبيق بإدارة سياسات الشبكة وتحديد قواعد متعلقة بالتطبيق.",
        "permdesc_manageOngoingCalls": "يسمح هذا الإذن للتطبيق بمعرفة تفاصيل المكالمات الجارية على جهازك والتحكّم فيها.",
        "permdesc_manageOwnCalls": "يسمح للتطبيق بتوجيه المكالمات من خلال النظام لتحسين تجربة الاتصال.",
        "permdesc_manageProfileAndDeviceOwners": "للسماح للتطبيقات بتعيين مالكي الملف الشخصي ومالك الجهاز.",
        "permdesc_mediaLocation": "يسمح للتطبيق بقراءة المواقع من مجموعة الوسائط الخاصة بك.",
        "permdesc_modifyAudioSettings": "للسماح للتطبيق بتعديل إعدادات الصوت العامة مثل مستوى الصوت وأي السماعات يتم استخدامها للاستماع.",
        "permdesc_modifyNetworkAccounting": "للسماح للتطبيق بتعديل كيفية حساب استخدام الشبكة في التطبيقات. ليس للاستخدام بواسطة التطبيقات العادية.",
        "permdesc_nearby_wifi_devices": "يسمح للتطبيق بالإعلان والاتصال وتحديد الموقع النسبي لأجهزة Wi-Fi القريبة",
        "permdesc_nfc": "‏للسماح للتطبيق بالاتصال بعلامات الاتصال قريب المدى (NFC)، والبطاقات وبرامج القراءة.",
        "permdesc_observeCompanionDevicePresence": "يسمح هذا الإذن للتطبيق المصاحب بملاحظة توفّر الأجهزة المرتبطة عندما تكون قريبة أو بعيدة.",
        "permdesc_persistentActivity": "للسماح للتطبيق بجعل أجزاء منه ثابتة في الذاكرة. وقد يؤدي هذا إلى تقييد الذاكرة المتاحة للتطبيقات الأخرى مما يؤدي إلى حدوث بطء في الهاتف.",
        "permdesc_postNotification": "يسمح للتطبيق بإظهار الإشعارات",
        "permdesc_preferredPaymentInfo": "‏يسمح هذا الإذن للتطبيق بالحصول على معلومات الخدمات المدفوعة باستخدام الاتصال قصير المدى NFC المفضّل، مثلاً المساعدات المسجّلة ووجهة المسار.",
        "permdesc_processOutgoingCalls": "للسماح للتطبيق بالاطلاع على الرقم الذي يتم الاتصال به عند إجراء مكالمة صادرة مع وجود الخيار لإعادة توجيه المكالمة إلى رقم آخر أو إنهاء المكالمة تمامًا.",
        "permdesc_queryAllPackages": "يسمح هذا الإذن للتطبيق بعرض كل الحِزم المثبّتة.",
        "permdesc_readBasicPhoneState": "يسمح للتطبيق بالوصول إلى ميزات الاتصال الهاتفي الأساسية للجهاز.",
        "permdesc_readCalendar": "يمكن لهذا التطبيق قراءة جميع أحداث التقويم المخزَّنة على الهاتف ومشاركة بيانات التقويم أو حفظها.",
        "permdesc_readCallLog": "يمكن لهذا التطبيق قراءة سجل المكالمات.",
        "permdesc_readCellBroadcasts": "السماح للتطبيق بقراءة رسائل بث الخلية التي يتلقاها هذا الجهاز. يتم تسليم اشعارات بث الخلية في بعض المواقع لتحذيرك من حالات طارئة. يمكن أن تتداخل التطبيقات الضارة مع أداء أو تشغيل الجهاز عندما يتم تلقي بث خلية طارئ.",
        "permdesc_readContacts": "يسمح هذا الإذن للتطبيق بقراءة بيانات حول جهات الاتصال المخزّنة على هاتفك. ويمكن للتطبيقات أيضًا الوصول إلى الحسابات التي تم إنشاء جهات الاتصال من خلالها على هاتفك. ويمكن أن يشمل ذلك الحسابات التي أنشأتها التطبيقات التي ثبتّها. ويتيح هذا الإذن للتطبيقات حفظ بيانات جهة الاتصال، وقد تشارك التطبيقات الضارة بيانات جهة الاتصال بدون علمك.",
        "permdesc_readHistoryBookmarks": "‏للسماح للتطبيق بقراءة سجل جميع عناوين URL التي زارها المتصفح، وجميع الإشارات المرجعية في المتصفح. ملاحظة: لا يجوز فرض هذا الإذن من قِبل متصفحات جهة خارجية أو تطبيقات أخرى تتوفر بها إمكانيات تصفح الويب.",
        "permdesc_readInstallSessions": "للسماح لأحد التطبيقات بقراءة جلسات التثبيت. ويسمح لك هذا بالاطلاع على تفاصيل بشأن عمليات تثبيت الحزم النشطة.",
        "permdesc_readMediaAudio": "يسمح للتطبيق بقراءة الملفات الصوتية من وحدة التخزين المشتركة الخاصة بك.",
        "permdesc_readMediaImages": "يسمح للتطبيق بقراءة الملفات الصوتية من وحدة التخزين المشتركة الخاصة بك.",
        "permdesc_readMediaVideo": "يسمح للتطبيق بقراءة ملفات الفيديو من وحدة التخزين المشتركة.",
        "permdesc_readNetworkUsageHistory": "للسماح للتطبيق بقراءة معلومات سابقة عن استخدام الشبكة لشبكات وتطبيقات محددة.",
        "permdesc_readPhoneNumbers": "للسماح للتطبيق بالوصول إلى أرقام الهواتف على هذا الجهاز.",
        "permdesc_readPhoneState": "للسماح للتطبيق بالدخول إلى ميزات الهاتف في الجهاز. ويتيح هذا الإذن للتطبيق تحديد رقم الهاتف ومعرّفات الجهاز، وما إذا كانت هناك مكالمة نشطة والرقم البعيد الذي تم الاتصال به في المكالمة.",
        "permdesc_readSms": "‏يمكن لهذا التطبيق قراءة جميع الرسائل النصية القصيرة (SMS) المخزّنة على الهاتف.",
        "permdesc_readSyncSettings": "للسماح للتطبيق بقراءة الإعدادات المتزامنة لحساب ما. على سبيل المثال، يمكن أن يؤدي هذا إلى تحديد ما إذا تمت مزامنة تطبيق \"الأشخاص\" مع حساب ما.",
        "permdesc_readSyncStats": "للسماح للتطبيق بقراءة إحصائيات المزامنة لحساب ما، بما في ذلك سجل الأحداث المتزامنة ومقدار البيانات التي تمت مزامنتها.",
        "permdesc_readVisualUserSelect": "يسمح هذا الإذن للتطبيق بقراءة ملفات الفيديو والصور التي تختارها من مساحة التخزين المشتركة.",
        "permdesc_receiveBootCompleted": "للسماح للتطبيق ببدء تشغيل نفسه عقب انتهاء النظام من التشغيل. قد يؤدي ذلك إلى استغراق المزيد من الوقت عن بدء الهاتف والسماح للتطبيق بإبطاء الأداء الإجمالي للهاتف حيث يتم تشغيله دائمًا.",
        "permdesc_receiveMms": "للسماح للتطبيق بتلقي ومعالجة رسائل الوسائط المتعددة. وهذا يعني أنه يمكن للتطبيق مراقبة الرسائل التي يتم إرسالها لجهازك أو حذفها بدون عرضها لك.",
        "permdesc_receiveSms": "‏للسماح للتطبيق بتلقي ومعالجة الرسائل القصيرة SMS. وهذا يعني أنه يمكن للتطبيق مراقبة الرسائل التي يتم إرسالها إلى جهازك أو حذفها بدون عرضها لك.",
        "permdesc_receiveWapPush": "‏للسماح للتطبيق بتلقي رسائل WAP ومعالجتها. ويتضمن هذا الإذن إمكانية مراقبة الرسائل التي يتم إرسالها إليك أو حذفها بدون عرضها لك.",
        "permdesc_recordAudio": "يمكن لهذا التطبيق تسجيل الصوت باستخدام الميكروفون عندما يكون التطبيق قيد الاستخدام.",
        "permdesc_recordBackgroundAudio": "يمكن لهذا التطبيق تسجيل الصوت باستخدام الميكروفون في أي وقت.",
        "permdesc_register_call_provider": "للسماح للتطبيق بتسجيل الاتصالات اللاسلكية الجديدة.",
        "permdesc_register_sim_subscription": "‏للسماح للتطبيق بتسجيل اتصالات SIM اللاسلكية الجديدة.",
        "permdesc_removeDrmCertificates": "السماح لأحد التطبيقات بإزالة شهادات إدارة الحقوق الرقمية (DRM). من المفترض عدم الحاجة إليه مع التطبيقات العادية.",
        "permdesc_reorderTasks": "للسماح للتطبيق بنقل المهام إلى المقدمة والخلفية. وقد يجري التطبيق ذلك بدون إذنك.",
        "permdesc_requestDeletePackages": "للسماح لتطبيق ما بطلب حذف الحِزم.",
        "permdesc_requestIgnoreBatteryOptimizations": "للسماح للتطبيق بطلب الإذن لتجاهل تحسينات البطارية في هذا التطبيق.",
        "permdesc_requestInstallPackages": "للسماح لتطبيق ما بطلب تثبيت الحزم.",
        "permdesc_requestPasswordComplexity": "يسمح للتطبيق بمعرفة مستوى صعوبة قفل الشاشة (عالي أو متوسط أو منخفض الصعوبة أو بدون)، والذي يحدّد النطاق المحتمل لطول ونوع قفل الشاشة. ويمكن أن يقترح التطبيق للمستخدمين أيضًا تعديل قفل الشاشة إلى مستوى معيّن، ولهم مطلق الحرية في تجاهل هذا الاقتراح ورفضه. وتجدر الإشارة إلى أنه لا يتم حفظ قفل الشاشة في نص عادي، لذا لا يعرف التطبيق كلمة المرور تحديدًا.",
        "permdesc_route_media_output": "للسماح للتطبيق بتوجيه إخراج الوسائط إلى أجهزة خارجية أخرى.",
        "permdesc_runInBackground": "يمكن أن يعمل هذا التطبيق في الخلفية. وهذا قد يستنفد البطارية بشكل أسرع.",
        "permdesc_schedule_exact_alarm": "يمكن لهذا التطبيق جدولة العمل لتنفيذه في الوقت الذي تريده في المستقبل. ويعني هذا أيضًا أنه يمكن تشغيل التطبيق في حال عدم استخدامك للجهاز بشكل نشط.",
        "permdesc_sdcardRead": "للسماح للتطبيق بقراءة محتوى مساحة التخزين المشتركة.",
        "permdesc_sdcardWrite": "للسماح للتطبيق بالكتابة إلى محتوى مساحة التخزين المشتركة.",
        "permdesc_sendSms": "‏للسماح للتطبيق بإرسال رسائل قصيرة SMS. وقد يؤدي هذا إلى تحمل رسوم غير متوقعة. وقد تكلفك التطبيقات الضارة أموالاً من خلال إرسال رسائل بدون موافقة منك.",
        "permdesc_setAlarm": "للسماح للتطبيق بضبط المنبّه في تطبيق المنبّه المثبّت. ربما لا تنفذ بعض تطبيقات المنبّه هذه الميزة.",
        "permdesc_setInputCalibration": "يتيح للتطبيق إمكانية تعديل معلمات المعايرة في شاشة اللمس. يجب عدم اللجوء إليه مع التطبيقات العادية.",
        "permdesc_setTimeZone": "للسماح للتطبيق بتغيير المنطقة الزمنية للهاتف.",
        "permdesc_setWallpaper": "للسماح للتطبيق بتعيين خلفية النظام.",
        "permdesc_setWallpaperHints": "للسماح للتطبيق بتعيين تلميحات حجم خلفية النظام.",
        "permdesc_sim_communication": "‏السماح للتطبيق بإرسال أوامر إلى شريحة SIM. وهذا أمر بالغ الخطورة.",
        "permdesc_startForegroundServicesFromBackground": "يسمح هذا الإذن للتطبيق المصاحب ببدء الخدمات التي تعمل في المقدّمة من الخلفية.",
        "permdesc_startReviewPermissionDecisions": "يسمح للمالك ببدء الشاشة لمراجعة قرارات الإذن. لن تكون هناك حاجة أبدًا للتطبيقات العادية.",
        "permdesc_startViewAppFeatures": "يسمح للمالك ببدء عرض معلومات الميزات لتطبيق ما.",
        "permdesc_startViewPermissionUsage": "يسمح للمالك ببدء استخدام التصريح لأحد التطبيقات. ليس هناك حاجة إليه مطلقًا مع التطبيقات العادية.",
        "permdesc_statusBar": "للسماح للتطبيق بإيقاف شريط الحالة أو إضافة رموز نظام وإزالتها.",
        "permdesc_statusBarService": "للسماح للتطبيق بأن يكون شريط الحالة.",
        "permdesc_subscribedFeedsRead": "للسماح للتطبيق بالحصول على تفاصيل حول الخلاصات المتزامنة في الوقت الحالي.",
        "permdesc_systemAlertWindow": "يمكن لهذا التطبيق الظهور في مقدمة التطبيقات أو أجزاء الشاشة الأخرى. وقد يتداخل هذا مع الاستخدام العادي للتطبيقات أو يؤدي إلى تغيير طريقة ظهور التطبيقات الأخرى.",
        "permdesc_systemCamera": "‏إنّ تطبيق النظام هذا، أو التطبيق المزوّد بأذونات مميّزة، يمكنه التقاط صور وتسجيل فيديوهات باستخدام كاميرا النظام في أي وقت. ويجب أن يحصل التطبيق أيضًا على الإذن android.permission.CAMERA",
        "permdesc_transmitIr": "للسماح للتطبيق باستخدام مرسل الأشعة تحت الحمراء الخاص بالهاتف.",
        "permdesc_turnScreenOn": "يسمح هذا الإذن للتطبيق بتفعيل الشاشة.",
        "permdesc_uninstall_shortcut": "للسماح للتطبيق بإزالة اختصارات من الشاشة الرئيسية بدون تدخل المستخدم.",
        "permdesc_updatePackagesWithoutUserAction": "يسمح هذا الإذن للمالك بتحديث التطبيق المثبّت مسبقًا بدون تأكيد المستخدم",
        "permdesc_useBiometric": "للسماح للتطبيق باستخدام الأجهزة البيومترية للمصادقة",
        "permdesc_useDataInBackground": "يمكن أن يستخدم هذا التطبيق البيانات في الخلفية. وهذا قد يؤدي إلى زيادة استخدام البيانات.",
        "permdesc_useFaceAuthentication": "السماح للتطبيق باستخدام أجهزة \"فتح القفل بالوجه\" لإجراء المصادقة",
        "permdesc_useFingerprint": "للسماح للتطبيق باستخدام أجهزة بصمة الإصبع للمصادقة",
        "permdesc_use_exact_alarm": "يمكن لهذا التطبيق جدولة إجراءات، مثل التنبيهات والتذكيرات لإعلامك في الوقت الذي تريده في المستقبل.",
        "permdesc_use_sip": "‏للسماح للتطبيق بإجراء مكالمات SIP وتلقيها.",
        "permdesc_uwb_ranging": "يسمح هذا الإذن للتطبيق بتحديد الموضع النسبي بين الأجهزة المجاورة التي تستخدم النطاق الواسع جدًا",
        "permdesc_vibrate": "للسماح للتطبيق بالتحكم في الهزّاز.",
        "permdesc_vibrator_state": "يسمح هذا الإذن للتطبيق بالوصول إلى حالة الهزّاز.",
        "permdesc_videoWrite": "يسمح للتطبيق بتعديل مجموعة الفيديوهات الخاصة بك.",
        "permdesc_wakeLock": "للسماح للتطبيق بمنع الهاتف من الانتقال إلى وضع السكون.",
        "permdesc_writeCalendar": "يمكن لهذا التطبيق إضافة أحداث تقويم أو إزالتها أو تغييرها على الهاتف. كما يمكنه إرسال رسائل يبدو أنها واردة من مالكي التقويم، ويمكنه كذلك تغيير الأحداث بدون إشعار مالكيها.",
        "permdesc_writeCallLog": "للسماح للتطبيق بتعديل سجل مكالمات الهاتف، بما في ذلك البيانات عن المكالمات الواردة والصادرة. وربما تستخدم التطبيقات الضارة هذا لمحو سجل المكالمات أو تعديله.",
        "permdesc_writeContacts": "يسمح هذا الإذن للتطبيق بتعديل البيانات حول جهات الاتصال المخزّنة على هاتفك. ويسمح هذا الإذن للتطبيقات بحذف بيانات جهات الاتصال.",
        "permdesc_writeGeolocationPermissions": "للسماح لأحد التطبيقات بتعديل أذونات الموقع الجغرافي للمتصفح. يمكن أن تستخدم التطبيقات الضارة هذا للسماح بإرسال معلومات الموقع إلى مواقع ويب عشوائية.",
        "permdesc_writeHistoryBookmarks": "للسماح للتطبيق بتعديل سجل المتصفح أو الإشارات المرجعية المخزنة على هاتفك. وقد يتيح هذا للتطبيق محو بيانات المتصفح أو تعديلها. ملاحظة: لا يجوز فرض هذا الإذن من قِبل متصفحات جهات خارجية أو تطبيقات أخرى بها إمكانيات تصفح الويب.",
        "permdesc_writeSettings": "للسماح للتطبيق بتعديل بيانات إعدادات النظام. يمكن أن تتلف التطبيقات الضارة تهيئة نظامك.",
        "permdesc_writeSyncSettings": "للسماح للتطبيق بتعديل إعدادات المزامنة لحساب ما. على سبيل المثال، يمكن استخدام ذلك لتمكين مزامنة تطبيق \"الأشخاص\" مع حساب ما.",
        "permgroupbackgroundrequest_location": "السماح للتطبيق بطلب الموقع في الخلفية.",
        "permgroupbackgroundrequestdetail_location": "لا يمكن للتطبيق الآن النفاذ إلى الموقع الجغرافي إلا عند استخدامك للتطبيق",
        "permgroupdesc_activityRecognition": "الوصول إلى بيانات نشاطك البدني",
        "permgroupdesc_calendar": "الوصول تقويمك",
        "permgroupdesc_calllog": "قراءة سجلّ المكالمات الهاتفية والكتابة إليه",
        "permgroupdesc_camera": "التقاط صور وتسجيل فيديو",
        "permgroupdesc_contacts": "الوصول إلى جهات اتصالك",
        "permgroupdesc_location": "الوصول إلى موقع هذا الجهاز",
        "permgroupdesc_microphone": "تسجيل الصوت",
        "permgroupdesc_nearby_devices": "يسمح هذا الإذن برصد الأجهزة المجاورة والربط بها",
        "permgroupdesc_notifications": "عرض الإشعارات",
        "permgroupdesc_phone": "إجراء مكالمات هاتفية وإدارتها",
        "permgroupdesc_readMediaAural": "الوصول إلى الموسيقى والصوت على جهازك",
        "permgroupdesc_readMediaVisual": "الوصول إلى الصور ومقاطع الفيديو على جهازك",
        "permgroupdesc_sensors": "الوصول إلى بيانات المستشعر حول علاماتك الحيوية",
        "permgroupdesc_sms": "‏إرسال رسائل قصيرة SMS وعرضها",
        "permgroupdesc_storage": "الوصول إلى الصور والوسائط والملفات على جهازك",
        "permgrouplab_activityRecognition": "النشاط البدني",
        "permgrouplab_calendar": "التقويم",
        "permgrouplab_calllog": "سجلّ المكالمات",
        "permgrouplab_camera": "الكاميرا",
        "permgrouplab_contacts": "جهات الاتصال",
        "permgrouplab_location": "الموقع الجغرافي",
        "permgrouplab_microphone": "الميكروفون",
        "permgrouplab_nearby_devices": "الأجهزة المجاورة",
        "permgrouplab_notifications": "الإشعارات",
        "permgrouplab_phone": "الهاتف",
        "permgrouplab_readMediaAural": "الموسيقى والمقاطع الصوتية",
        "permgrouplab_readMediaVisual": "الصور ومقاطع الفيديو",
        "permgrouplab_sensors": "أجهزة استشعار الجسم",
        "permgrouplab_sms": "SMS",
        "permgrouplab_storage": "الملفات",
        "permgrouprequest_activityRecognition": "‏السماح للتطبيق بتتبع نشاطك.",
        "permgrouprequest_calendar": "‏هل تريد السماح لتطبيق <b>",
        "permgrouprequest_calllog": "‏هل تريد السماح لتطبيق <b>",
        "permgrouprequest_camera": "‏هل تريد السماح لخدمة <b>",
        "permgrouprequest_contacts": "‏هل تريد السماح لتطبيق <b>",
        "permgrouprequest_location": "‏هل تريد السماح لتطبيق <b>",
        "permgrouprequest_microphone": "السماح <b></b>",
        "permgrouprequest_phone": "السماح <b></b>",
        "permgrouprequest_sensors": "‏هل تريد السماح لتطبيق <b>",
        "permgrouprequest_sms": "‏هل تريد السماح لتطبيق <b>",
        "permgrouprequest_storage": "‏هل تريد السماح لتطبيق <b>",
        "permgrouprequestdetail_location": "لن يكون بإمكان التطبيق الوصول إلى الموقع الجغرافي إلا عند استخدامك لهذا التطبيق",
        "permlab_acceptHandover": "مواصلة مكالمة من تطبيق آخر",
        "permlab_accessBackgroundLocation": "الوصول إلى الموقع الجغرافي في الخلفية",
        "permlab_accessCoarseLocation": "الوصول إلى الموقع الجغرافي التقريبي في الواجهة الأمامية فقط",
        "permlab_accessDrmCertificates": "‏الدخول إلى شهادات DRM",
        "permlab_accessFineLocation": "الوصول إلى الموقع الجغرافي الدقيق في الواجهة الأمامية فقط",
        "permlab_accessImsCallService": "الوصول إلى خدمة الاتصال عبر الرسائل الفورية",
        "permlab_accessLocationExtraCommands": "الدخول إلى المزيد من أوامر موفر الموقع",
        "permlab_accessNetworkConditions": "الاستماع إلى ملاحظات حول أحوال الشبكة",
        "permlab_accessNetworkState": "عرض اتصالات الشبكة",
        "permlab_accessNotifications": "إشعارات الدخول",
        "permlab_accessWifiState": "‏عرض اتصالات Wi-Fi",
        "permlab_accessWimaxState": "‏الاتصال بشبكة WiMAX وقطع الاتصال منها",
        "permlab_access_notification_policy": "الوصول إلى إعداد \"عدم الإزعاج\"",
        "permlab_activityRecognition": "التعرّف على النشاط البدني",
        "permlab_addVoicemail": "إضافة بريد صوتي",
        "permlab_answerPhoneCalls": "الرد على المكالمات الهاتفية",
        "permlab_audioWrite": "تعديل مجموعتك الموسيقية",
        "permlab_backgroundCamera": "التقاط صور وتصوير فيديوهات في الخلفية",
        "permlab_bindCarrierMessagingService": "الالتزام بخدمة المراسلة التابعة لمشغل شبكة الجوّال",
        "permlab_bindCarrierServices": "الالتزام بخدمات مشغل شبكة الجوال",
        "permlab_bindCellBroadcastService": "إعادة توجيه رسائل البث الخلوي",
        "permlab_bindConditionProviderService": "الربط بخدمة موفر الحالة",
        "permlab_bindDreamService": "‏الالتزام بخدمة dream",
        "permlab_bindNotificationListenerService": "الربط بخدمة تلقّي الإشعارات الصوتية",
        "permlab_bind_connection_service": "التفاعل مع الخدمات الهاتفية",
        "permlab_bind_incall_service": "التفاعل مع الشاشة أثناء الاتصال",
        "permlab_bluetooth": "الاتصال بأجهزة بلوتوث",
        "permlab_bluetoothAdmin": "الدخول إلى إعدادات بلوتوث",
        "permlab_bluetooth_advertise": "عرض الإعلانات على الأجهزة القريبة التي تتضمن بلوتوث",
        "permlab_bluetooth_connect": "تسمح بالربط الأجهزة المقترنة التي تتضمّن بلوتوث",
        "permlab_bluetooth_scan": "اكتشاف أجهزة قريبة تتضمّن بلوتوث والاقتران بها",
        "permlab_bodySensors": "الوصول إلى أجهزة استشعار الجسم (مثل شاشات معدل ضربات القلب)",
        "permlab_bodySensors_background": "الوصول إلى بيانات مستشعر الجسم، مثل معدل نبضات القلب، أثناء وجوده في الخلفية",
        "permlab_broadcastSticky": "إرسال بث طويل الزيارة",
        "permlab_callCompanionApp": "رؤية المكالمات والتحكّم فيها من خلال النظام.",
        "permlab_callPhone": "اتصال مباشر بأرقام الهواتف",
        "permlab_camera": "التقاط صور وفيديوهات",
        "permlab_cameraOpenCloseListener": "يسمح الإذن لتطبيق أو خدمة بتلقّي استدعاءات عما إذا كانت أجهزة الكاميرات مفتوحة أو مغلقة.",
        "permlab_changeNetworkState": "تغيير اتصال الشبكة",
        "permlab_changeTetherState": "تغيير الاتصال المربوط",
        "permlab_changeWifiMulticastState": "‏السماح باستقبال بث Wi-Fi متعدد",
        "permlab_changeWifiState": "‏التوصيل والفصل من Wi-Fi",
        "permlab_changeWimaxState": "‏تغيير حالة WiMAX",
        "permlab_companionProfileWatch": "‏إذن الملف الشخصي في Companion Watch لإدارة الساعات",
        "permlab_connection_manager": "إدارة الاتصالات اللاسلكية",
        "permlab_control_incall_experience": "توفير تجربة للمستخدم أثناء الاتصال",
        "permlab_createNetworkSockets": "حق الوصول الكامل إلى الشبكة",
        "permlab_deliverCompanionMessages": "تسليم الرسائل المصاحبة",
        "permlab_detectScreenCapture": "رصد لقطات الشاشة لنوافذ التطبيق",
        "permlab_disableKeyguard": "إيقاف قفل الشاشة",
        "permlab_enableCarMode": "تفعيل وضع السيارة",
        "permlab_exemptFromAudioRecordRestrictions": "الإعفاء من القيود على تسجيل الصوت",
        "permlab_expandStatusBar": "توسيع/تصغير شريط الحالة",
        "permlab_foregroundService": "تشغيل الخدمة في المقدمة",
        "permlab_foregroundServiceCamera": "‏تشغيل الخدمة التي تعمل في المقدّمة ذات النوع \"camera\"",
        "permlab_foregroundServiceConnectedDevice": "‏تشغيل الخدمة التي تعمل في المقدّمة ذات النوع \"connectedDevice\"",
        "permlab_foregroundServiceDataSync": "‏تشغيل الخدمة التي تعمل في المقدّمة ذات النوع \"dataSync\"",
        "permlab_foregroundServiceFileManagement": "‏تشغيل الخدمة التي تعمل في المقدّمة ذات النوع \"fileManagement\"",
        "permlab_foregroundServiceHealth": "‏تشغيل الخدمة التي تعمل في المقدّمة ذات النوع \"health\"",
        "permlab_foregroundServiceLocation": "‏تشغيل الخدمة التي تعمل في المقدّمة ذات النوع \"location\"",
        "permlab_foregroundServiceMediaPlayback": "‏تشغيل الخدمة التي تعمل في المقدّمة ذات النوع \"mediaPlayback\"",
        "permlab_foregroundServiceMediaProjection": "‏تشغيل الخدمة التي تعمل في المقدّمة ذات النوع \"mediaProjection\"",
        "permlab_foregroundServiceMicrophone": "‏تشغيل الخدمة التي تعمل في المقدّمة ذات النوع \"microphone\"",
        "permlab_foregroundServicePhoneCall": "‏تشغيل الخدمة التي تعمل في المقدّمة ذات النوع \"phoneCall\"",
        "permlab_foregroundServiceRemoteMessaging": "‏تشغيل الخدمة التي تعمل في المقدّمة ذات النوع \"remoteMessaging\"",
        "permlab_foregroundServiceSpecialUse": "‏تشغيل الخدمة التي تعمل في المقدّمة ذات النوع \"specialUse\"",
        "permlab_foregroundServiceSystemExempted": "‏تشغيل الخدمة التي تعمل في المقدّمة ذات النوع \"systemExempted\"",
        "permlab_fullScreenIntent": "عرض الإشعارات كأنشطة بملء الشاشة على الأجهزة المُقفَلة",
        "permlab_getAccounts": "البحث عن حسابات على الجهاز",
        "permlab_getPackageSize": "قياس مساحة تخزين التطبيق",
        "permlab_getTasks": "استرداد التطبيقات التي قيد التشغيل",
        "permlab_handoverStatus": "‏تلقي حالة نقل شعاع Android",
        "permlab_hideOverlayWindows": "إخفاء النوافذ المركّبة الخاصة بالتطبيقات الأخرى",
        "permlab_highSamplingRateSensors": "الوصول إلى بيانات جهاز الاستشعار بمعدّل مرتفع للبيانات في الملف الصوتي",
        "permlab_imagesWrite": "تعديل مجموعة صورك",
        "permlab_install_shortcut": "تثبيت اختصارات",
        "permlab_invokeCarrierSetup": "استدعاء تطبيق التهيئة الذي يوفره مشغل شبكة الجوال",
        "permlab_killBackgroundProcesses": "إغلاق التطبيقات الأخرى",
        "permlab_manageFace": "إدارة أجهزة \"فتح القفل بالوجه\"",
        "permlab_manageFingerprint": "لإدارة أجهزة بصمة الإصبع",
        "permlab_manageNetworkPolicy": "إدارة سياسة الشبكة",
        "permlab_manageOngoingCalls": "إدارة المكالمات الجارية",
        "permlab_manageOwnCalls": "توجيه المكالمات من خلال النظام",
        "permlab_manageProfileAndDeviceOwners": "إدارة الملف الشخصي ومالكي الجهاز",
        "permlab_mediaLocation": "قراءة المواقع من مجموعة الوسائط الخاصة بك",
        "permlab_modifyAudioSettings": "تغيير إعداداتك الصوتية",
        "permlab_modifyNetworkAccounting": "تعديل حساب استخدام الشبكة",
        "permlab_nearby_wifi_devices": "التفاعل مع أجهزة Wi-Fi القريبة",
        "permlab_nfc": "التحكم في اتصال الحقل القريب",
        "permlab_observeCompanionDevicePresence": "ملاحظة توفّر الأجهزة المصاحبة",
        "permlab_persistentActivity": "تشغيل التطبيق دائمًا",
        "permlab_postNotification": "عرض الإشعارات",
        "permlab_preferredPaymentInfo": "‏معلومات الخدمات المدفوعة باستخدام الاتصال قصير المدى NFC المفضّل",
        "permlab_processOutgoingCalls": "إعادة توجيه المكالمات الصادرة",
        "permlab_queryAllPackages": "البحث في كل الحِزم",
        "permlab_readBasicPhoneState": "قراءة حالة الاتصال الهاتفي الأساسي والهوية",
        "permlab_readCalendar": "قراءة أحداث التقويم والتفاصيل",
        "permlab_readCallLog": "قراءة سجل المكالمات",
        "permlab_readCellBroadcasts": "قراءة رسائل بث الخلية",
        "permlab_readContacts": "قراءة جهات الاتصال",
        "permlab_readHistoryBookmarks": "قراءة إشارات ويب والسجل",
        "permlab_readInstallSessions": "قراءة جلسات التثبيت",
        "permlab_readMediaAudio": "قراءة الملفات الصوتية من وحدة التخزين المشتركة",
        "permlab_readMediaImages": "قراءة ملفات الصور من مساحة التخزين المشتركة",
        "permlab_readMediaVideo": "قراءة ملفات الفيديو من مساحة التخزين المشتركة",
        "permlab_readNetworkUsageHistory": "قراءة بيانات الاستخدام السابقة للشبكة",
        "permlab_readPhoneNumbers": "قراءة أرقام الهواتف",
        "permlab_readPhoneState": "قراءة حالة الهاتف والهوية",
        "permlab_readSms": "‏قراءة الرسائل النصية (الرسائل القصيرة SMS أو رسائل الوسائط المتعددة)",
        "permlab_readSyncSettings": "قراءة إعدادات المزامنة",
        "permlab_readSyncStats": "قراءة إحصاءات المزامنة",
        "permlab_readVisualUserSelect": "قراءة ملفات الفيديو والصور من مساحة التخزين المشتركة",
        "permlab_receiveBootCompleted": "العمل عند بدء التشغيل",
        "permlab_receiveMms": "تلقي رسائل نصية (رسائل وسائط متعددة)",
        "permlab_receiveSms": "‏تلقي رسائل نصية (رسائل قصيرة SMS)",
        "permlab_receiveWapPush": "‏تلقي رسائل نصية (WAP)",
        "permlab_recordAudio": "تسجيل الصوت",
        "permlab_recordBackgroundAudio": "تسجيل الصوت في الخلفية",
        "permlab_register_call_provider": "تسجيل الاتصالات اللاسلكية الجديدة",
        "permlab_register_sim_subscription": "‏تسجيل اتصالات SIM اللاسلكية الجديدة",
        "permlab_removeDrmCertificates": "‏إزالة شهادات DRM",
        "permlab_reorderTasks": "إعادة ترتيب التطبيقات قيد التشغيل",
        "permlab_requestDeletePackages": "طلب حذف الحِزم",
        "permlab_requestIgnoreBatteryOptimizations": "طلب تجاهل تحسينات البطارية",
        "permlab_requestInstallPackages": "طلب حزم التثبيت",
        "permlab_requestPasswordComplexity": "طلب معرفة مستوى صعوبة قفل الشاشة",
        "permlab_route_media_output": "توجيه إخراج الوسائط",
        "permlab_runInBackground": "العمل في الخلفية",
        "permlab_schedule_exact_alarm": "جدولة الإجراءات المحددة بوقت بدقة",
        "permlab_sdcardRead": "قراءة محتوى مساحة التخزين المشتركة",
        "permlab_sdcardWrite": "تعديل محتوى مساحة التخزين المشتركة أو حذفه",
        "permlab_sendSms": "‏إرسال رسائل قصيرة SMS وعرضها",
        "permlab_setAlarm": "تعيين منبه",
        "permlab_setInputCalibration": "تغيير معايرة أجهزة الإدخال",
        "permlab_setTimeZone": "تعيين المنطقة الزمنية",
        "permlab_setWallpaper": "تعيين الخلفية",
        "permlab_setWallpaperHints": "تعديل حجم الخلفية",
        "permlab_sim_communication": "‏إرسال أوامر إلى شريحة SIM",
        "permlab_startForegroundServicesFromBackground": "بدء الخدمات التي تعمل في المقدّمة من الخلفية",
        "permlab_startReviewPermissionDecisions": "بدء عرض قرارات الإذن",
        "permlab_startViewAppFeatures": "بدء عرض ميزات التطبيق",
        "permlab_startViewPermissionUsage": "بدء استخدام تصريح العرض",
        "permlab_statusBar": "إيقاف شريط الحالة أو تعديله",
        "permlab_statusBarService": "العمل كشريط للحالة",
        "permlab_subscribedFeedsRead": "قراءة الخلاصات المشتركة",
        "permlab_systemAlertWindow": "يمكن لهذا التطبيق الظهور في مقدمة التطبيقات الأخرى",
        "permlab_systemCamera": "السماح لتطبيق أو خدمة بالوصول إلى كاميرات النظام لالتقاط صور وتسجيل فيديوهات",
        "permlab_transmitIr": "إرسال الأشعة تحت الحمراء",
        "permlab_turnScreenOn": "تفعيل الشاشة",
        "permlab_uninstall_shortcut": "إزالة الاختصارات",
        "permlab_updatePackagesWithoutUserAction": "تحديث التطبيق دون تأكيد المستخدم",
        "permlab_useBiometric": "استخدام الأجهزة البيومترية",
        "permlab_useDataInBackground": "استخدام البيانات في الخلفية",
        "permlab_useFaceAuthentication": "استخدام أجهزة \"فتح القفل بالوجه\"",
        "permlab_useFingerprint": "لاستخدام أجهزة بصمة الإصبع",
        "permlab_use_exact_alarm": "جدولة التنبيهات أو تذكيرات الأحداث",
        "permlab_use_sip": "‏إجراء/تلقي مكالمات SIP",
        "permlab_uwb_ranging": "تحديد الموضع النسبي بين الأجهزة المجاورة التي تستخدم النطاق الواسع جدًا",
        "permlab_vibrate": "التحكم في الاهتزاز",
        "permlab_videoWrite": "تعديل مجموعة فيديوهاتك",
        "permlab_wakeLock": "منع الهاتف من الدخول في وضع السكون",
        "permlab_writeCalendar": "إضافة أو تعديل أحداث التقويم وإرسال رسالة إلكترونية إلى المدعوين بدون معرفة المالكين",
        "permlab_writeCallLog": "كتابة سجل المكالمات",
        "permlab_writeContacts": "تعديل جهات الاتصال",
        "permlab_writeGeolocationPermissions": "تعديل أذونات الموقع الجغرافي للمتصفح",
        "permlab_writeHistoryBookmarks": "كتابة إشارات ويب والسجل",
        "permlab_writeSettings": "تعديل إعدادات النظام",
        "permlab_writeSyncSettings": "التبديل بين تشغيل المزامنة وإيقافها"
    },
    "sidebars": {
        "donate": {
            "bank_transfer_name": "الإسم",
            "bitcoin_alt": "تبرع بالبيتكوين",
            "credit_card": "بطاقة الائتمان",
            "crypto": "العملة المشفرة",
            "currency": "العملة",
            "flattr_alt": "تبرع عبر فلاتر",
            "heading": "تبرع",
            "hellotux": "👕 أقمصة 👕 مِن",
            "hellotux_alt": "HELLOTUX",
            "hellotux_donation": "F-Droid سوف يتلقى 3 يورو لكل قميص يباع.",
            "liberapay_alt": "تبرع عبر Liberapay",
            "litecoin_alt": "التبرع عبر اللايت كُوين",
            "more_options": "المزيد من الخيارات",
            "opencollective_alt": "تبرع لمجموعتنا",
            "paypal": "بايبال",
            "paypal_alt": "تبرع عبر بايبال",
            "powered_by_donations": "إنَّ F-Droid مدعوم بتبرعاتكم !",
            "via_bank_transfer": "تحويل بنكي"
        },
        "lang": {
            "change": "تغيير"
        },
        "last_updated": {
            "heading": "المحدّثة مؤخرًا"
        },
        "latest_packages": {
            "heading": "أحدث التطبيقات"
        },
        "news": {
            "heading": "الأخبار"
        },
        "search": {
            "heading": "اعثر على تطبيقات",
            "noscript": "تتطلب تفعيل جافا سكريبت",
            "search": "ابحث"
        }
    }
}
